<?xml version="1.0" encoding="utf-8"?>
<!-- Generated by IcoMoon.io -->
<!DOCTYPE svg PUBLIC "-//W3C//DTD SVG 1.1//EN" "http://www.w3.org/Graphics/SVG/1.1/DTD/svg11.dtd">
<svg version="1.1" xmlns="http://www.w3.org/2000/svg" xmlns:xlink="http://www.w3.org/1999/xlink" width="32" height="32" viewBox="0 0 32 32">
<path fill="#fff" d="M31.22 27.447l-8-8c-0.101-0.101-0.231-0.146-0.343-0.229 1.268-1.948 2.012-4.272 2.012-6.773 0-6.873-5.572-12.444-12.444-12.444s-12.444 5.572-12.444 12.444 5.572 12.444 12.444 12.444c2.501 0 4.825-0.745 6.775-2.014 0.084 0.112 0.128 0.244 0.229 0.343l8 8c0.519 0.523 1.202 0.782 1.884 0.782s1.365-0.26 1.886-0.78c1.040-1.042 1.040-2.731 0-3.772zM3.556 12.444c0-4.91 3.979-8.889 8.889-8.889s8.889 3.979 8.889 8.889-3.979 8.889-8.889 8.889-8.889-3.979-8.889-8.889z"></path>
</svg>
